# Name,Color 1,Color 2,Color 3...
Temperate A,c9c832,a2a552,7f8534
Temperate B,aec9b3,48a16f,287359
Cold A,f7f9fb,c2dbdf,71a2a6
Cold B,8dfdff,48b8ba,07909f
Autumn A,f48b53,f9c00f,ae1543
Test,ff0000,#abc123
